{
  "warriors": [
    {
      "nickname": "moon_boy",
      "name": "Neil Armstrong",
      "DOB": "05.08.1930",
      "superability": "superstrong",
      "isDeleted": false,
      "id": 1
    },
    {
      "nickname": "regrge",
      "name": "gerger",
      "DOB": "10.10.1999",
      "superability": "jjjjjjj",
      "isDeleted": false,
      "id": 2
    }
  ]
}